{
  "name": "lab",
  "$schema": "../../node_modules/nx/schemas/project-schema.json",
  "sourceRoot": "apps/lab",
  "projectType": "application",
  "targets": {
    "build": {
      "executor": "@nx/next:build",
      "outputs": ["{options.outputPath}"],
      "defaultConfiguration": "production",
      "options": {
        "outputPath": "dist/apps/lab"
      },
      "configurations": {
        "development": {
          "outputPath": "apps/lab"
        },
        "production": {}
      }
    },
    "serve": {
      "executor": "@nx/next:server",
      "defaultConfiguration": "development",
      "options": {
        "buildTarget": "lab:build",
        "dev": true
      },
      "configurations": {
        "development": {
          "buildTarget": "lab:build:development",
          "dev": true
        },
        "production": {
          "buildTarget": "lab:build:production",
          "dev": false
        }
      }
    },
    "export": {
      "executor": "@nx/next:export",
      "options": {
        "buildTarget": "lab:build:production"
      }
    },
    "lint": {
      "executor": "@nx/eslint:lint",
      "outputs": ["{options.outputFile}"],
      "options": {
        "lintFilePatterns": ["apps/lab/**/*.{ts,tsx,js,jsx}"]
      }
    }
  },
  "tags": []
}
