{
  "name": "estetica-pm",
  "$schema": "../../node_modules/nx/schemas/project-schema.json",
  "sourceRoot": "apps/estetica-pm",
  "projectType": "application",
  "targets": {
    "build": {
      "executor": "@nx/next:build",
      "outputs": ["{options.outputPath}"],
      "defaultConfiguration": "production",
      "options": {
        "outputPath": "dist/apps/estetica-pm"
      },
      "configurations": {
        "development": {
          "outputPath": "apps/estetica-pm"
        },
        "production": {}
      }
    },
    "serve": {
      "executor": "@nx/next:server",
      "defaultConfiguration": "development",
      "options": {
        "buildTarget": "estetica-pm:build",
        "port": 4203,
        "dev": true
      },
      "configurations": {
        "development": {
          "buildTarget": "estetica-pm:build:development",
          "dev": true
        },
        "production": {
          "buildTarget": "estetica-pm:build:production",
          "dev": false
        }
      }
    },
    "export": {
      "executor": "@nx/next:export",
      "options": {
        "buildTarget": "estetica-pm:build:production"
      }
    },
    "lint": {
      "executor": "@nx/eslint:lint",
      "outputs": ["{options.outputFile}"],
      "options": {
        "lintFilePatterns": ["apps/estetica-pm/**/*.{ts,tsx,js,jsx}"]
      }
    }
  },
  "tags": []
}
